Harry Potter
…
We need to do a pretty gnarly full join, since we want this for each book:

# for each book, expand the edges data and join it to characters
hp_all <- hp_edges %>%
  group_by(book) %>%
  group_map(~ full_join(.x, hp_chars, by = c("name1" = "name"))) %>%
  bind_rows(.id = "book")  %>% 
  dplyr::rename(from_id = name1, 
         to_id = name2)

We now have it in that form that we wanted i.e., Harry potter data as nodes and edges

hp_all

## # A tibble: 720 x 6
##    book  from_id            to_id              schoolyear gender house     
##    <chr> <chr>              <chr>                   <dbl> <chr>  <chr>     
##  1 1     Dean Thomas        Harry James Potter       1991 M      Gryffindor
##  2 1     Dean Thomas        Hermione Granger         1991 M      Gryffindor
##  3 1     Dean Thomas        Neville Longbottom       1991 M      Gryffindor
##  4 1     Dean Thomas        Ronald Weasley           1991 M      Gryffindor
##  5 1     Dean Thomas        Seamus Finnigan          1991 M      Gryffindor
##  6 1     Fred Weasley       George Weasley           1989 M      Gryffindor
##  7 1     Fred Weasley       Harry James Potter       1989 M      Gryffindor
##  8 1     George Weasley     Fred Weasley             1989 M      Gryffindor
##  9 1     George Weasley     Harry James Potter       1989 M      Gryffindor
## 10 1     Harry James Potter Dean Thomas              1991 M      Gryffindor
## #  with 710 more rows
…
