10a-exercise-lab-1-Solution.utf8
…
pp

## # A tibble: 3,393 x 61
##    name  sale  lot   position dealer  year origin_author origin_cat school_pntg
##    <chr> <chr> <chr>    <dbl> <chr>  <dbl> <chr>         <chr>      <chr>      
##  1 L176 L1764 2       0.0328 L       1764 F             O          F          
##  2 L176 L1764 3       0.0492 L       1764 I             O          I          
##  3 L176 L1764 4       0.0656 L       1764 X             O          D/FL       
##  4 L176 L1764 5       0.0820 L       1764 F             O          F          
##  5 L176 L1764 5       0.0820 L       1764 F             O          F          
##  6 L176 L1764 6       0.0984 L       1764 X             O          I          
##  7 L176 L1764 7       0.115  L       1764 F             O          F          
##  8 L176 L1764 7       0.115  L       1764 F             O          F          
##  9 L176 L1764 8       0.131  L       1764 X             O          I          
## 10 L176 L1764 9       0.148  L       1764 D/FL          O          D/FL       
## #  with 3,383 more rows, and 52 more variables: diff_origin <dbl>,
## #   logprice <dbl>, price <dbl>, count <dbl>, subject <chr>,
## #   authorstandard <chr>, artistliving <dbl>, authorstyle <chr>, author <chr>,
## #   winningbidder <chr>, winningbiddertype <chr>, endbuyer <chr>, Interm <dbl>,
## #   type_intermed <chr>, Height_in <dbl>, Width_in <dbl>, Surface_Rect <dbl>,
## #   Diam_in <dbl>, Surface_Rnd <dbl>, Shape <chr>, Surface <dbl>,
## #   material <chr>, mat <chr>, materialCat <chr>, quantity <dbl>,
## #   nfigures <dbl>, engraved <dbl>, original <dbl>, prevcoll <dbl>,
## #   othartist <dbl>, paired <dbl>, figures <dbl>, finished <dbl>,
…
