Exercise 1: Intro to data modeling
…
Diagnostics and augment

The residuals from the model are the difference between the observed value and the fitted value. The residuals and fitted values can be extracted using augment() function from broom:

mod_heights_diagnostics <- augment(mod_heights)
mod_heights_diagnostics

## # A tibble: 3,135 x 9
##    .rownames height_in width_in .fitted  .resid     .hat .sigma      .cooksd
##    <chr>         <dbl>    <dbl>   <dbl>   <dbl>    <dbl>  <dbl>        <dbl>
##  1 1                37     29.5   26.7  10.3    0.000399   8.30 0.000310    
##  2 2                18     14     14.6   3.45   0.000396   8.31 0.0000342   
##  3 3                13     16     16.1  -3.11   0.000361   8.31 0.0000254   
##  4 4                14     18     17.7  -3.68   0.000337   8.31 0.0000330   
##  5 5                14     18     17.7  -3.68   0.000337   8.31 0.0000330   
##  6 6                 7     10     11.4  -4.43   0.000498   8.31 0.0000709   
##  7 7                 6     13     13.8  -7.77   0.000418   8.30 0.000183    
##  8 8                 6     13     13.8  -7.77   0.000418   8.30 0.000183    
##  9 9                15     15     15.3  -0.333  0.000377   8.31 0.000000304 
## 10 10                9      7      9.09 -0.0870 0.000601   8.31 0.0000000330
## #  with 3,125 more rows, and 1 more variable: .std.resid <dbl>
…
