Extension-1
…
co2_ptb_fit_tidy <- tidy(co2_ptb_fit)
co2_ptb_fit_tidy

## # A tibble: 2 x 5
##   term         estimate std.error statistic p.value
##   <chr>           <dbl>     <dbl>     <dbl>   <dbl>
## 1 (Intercept) 326.      0.346          943.       0
## 2 day0          0.00494 0.0000339      146.       0

co2_ptb_model <- augment(co2_ptb_fit, co2_ptb)
co2_ptb_model

## # A tibble: 1,603 x 17
##    date       time      day decdate     n   flg   co2   lat   lon stn    day0
##    <date>     <time>  <dbl>   <dbl> <dbl> <dbl> <dbl> <dbl> <dbl> <chr> <dbl>
##  1 1974-01-03 13:48  27033.   1974.     2     0  334.  71.3  157. ptb     0  
##  2 1974-01-16 12:12  27046.   1974.     2     0  338.  71.3  157. ptb    12.9
##  3 1974-03-30 09:12  27118.   1974.     2     0  337.  71.3  157. ptb    85.8
##  4 1974-04-25 13:20  27145.   1974.     2     0  336.  71.3  157. ptb   112. 
##  5 1974-05-08 09:14  27157.   1974.     2     0  337.  71.3  157. ptb   125. 
##  6 1974-06-15 12:32  27196.   1974.     3     0  336.  71.3  157. ptb   163. 
##  7 1974-07-02 14:27  27213.   1974.     3     0  334.  71.3  157. ptb   180. 
##  8 1974-08-14 12:54  27256.   1975.     3     0  323.  71.3  157. ptb   223. 
##  9 1974-09-10 12:43  27283.   1975.     2     0  324.  71.3  157. ptb   250. 
## 10 1974-09-24 08:56  27296.   1975.     2     0  325.  71.3  157. ptb   264. 
## #  with 1,593 more rows, and 6 more variables: .fitted <dbl>, .resid <dbl>,
## #   .hat <dbl>, .sigma <dbl>, .cooksd <dbl>, .std.resid <dbl>
…
