Week 3 - Introduction to Data Analysis
…
walk <- read_csv("data/walk_2019.csv")

## 
##  Column specification 
## cols(
##   Sensor = col_character(),
##   Date_Time = col_datetime(format = ""),
##   Date = col_date(format = ""),
##   Time = col_double(),
##   Count = col_double()
## )

walk

## # A tibble: 8,760 x 5
##    Sensor            Date_Time           Date        Time Count
##    <chr>             <dttm>              <date>     <dbl> <dbl>
##  1 Melbourne Central 2018-12-31 13:00:00 2019-01-01     0    NA
##  2 Melbourne Central 2018-12-31 14:00:00 2019-01-01     1    NA
##  3 Melbourne Central 2018-12-31 15:00:00 2019-01-01     2    NA
##  4 Melbourne Central 2018-12-31 16:00:00 2019-01-01     3    NA
##  5 Melbourne Central 2018-12-31 17:00:00 2019-01-01     4    NA
##  6 Melbourne Central 2018-12-31 18:00:00 2019-01-01     5    NA
##  7 Melbourne Central 2018-12-31 19:00:00 2019-01-01     6    NA
##  8 Melbourne Central 2018-12-31 20:00:00 2019-01-01     7    NA
##  9 Melbourne Central 2018-12-31 21:00:00 2019-01-01     8    NA
## 10 Melbourne Central 2018-12-31 22:00:00 2019-01-01     9    NA
## #  with 8,750 more rows

Conversion to Tidy data: Add new variables to data: month and wday

walk_tidy <- walk %>%
  mutate(month = month(Date,  label = TRUE, abbr = TRUE), 
         wday = wday(Date, label = TRUE, abbr = TRUE, week_start = 1))
walk_tidy

## # A tibble: 8,760 x 7
##    Sensor            Date_Time           Date        Time Count month wday 
##    <chr>             <dttm>              <date>     <dbl> <dbl> <ord> <ord>
##  1 Melbourne Central 2018-12-31 13:00:00 2019-01-01     0    NA Jan   Tue  
##  2 Melbourne Central 2018-12-31 14:00:00 2019-01-01     1    NA Jan   Tue  
##  3 Melbourne Central 2018-12-31 15:00:00 2019-01-01     2    NA Jan   Tue  
##  4 Melbourne Central 2018-12-31 16:00:00 2019-01-01     3    NA Jan   Tue  
##  5 Melbourne Central 2018-12-31 17:00:00 2019-01-01     4    NA Jan   Tue  
##  6 Melbourne Central 2018-12-31 18:00:00 2019-01-01     5    NA Jan   Tue  
##  7 Melbourne Central 2018-12-31 19:00:00 2019-01-01     6    NA Jan   Tue  
##  8 Melbourne Central 2018-12-31 20:00:00 2019-01-01     7    NA Jan   Tue  
##  9 Melbourne Central 2018-12-31 21:00:00 2019-01-01     8    NA Jan   Tue  
## 10 Melbourne Central 2018-12-31 22:00:00 2019-01-01     9    NA Jan   Tue  
## #  with 8,750 more rows
…
First, lets pull the 2019 data for the sensor Birrarung Marr. Transform data into tidy form.

Hint: Look at the similar code for Melbourne Central above.

# filter data for Birrarung Marr
walk_birra <- walk_all %>% filter(Sensor == "Birrarung Marr")

# transform to tidy data; create new columns: `month` and `wday`
walk_birra_tidy <- walk_birra %>%
  mutate(month = month(Date,  label = TRUE, abbr = TRUE), 
         wday = wday(Date, label = TRUE, abbr = TRUE, week_start = 1))
walk_birra_tidy

## # A tibble: 8,760 x 7
##    Sensor         Date_Time           Date        Time Count month wday 
##    <chr>          <dttm>              <date>     <int> <int> <ord> <ord>
##  1 Birrarung Marr 2019-01-01 00:00:00 2019-01-01     0    NA Jan   Tue  
##  2 Birrarung Marr 2019-01-01 01:00:00 2019-01-01     1  2733 Jan   Tue  
##  3 Birrarung Marr 2019-01-01 02:00:00 2019-01-01     2  1086 Jan   Tue  
##  4 Birrarung Marr 2019-01-01 03:00:00 2019-01-01     3   571 Jan   Tue  
##  5 Birrarung Marr 2019-01-01 04:00:00 2019-01-01     4   208 Jan   Tue  
##  6 Birrarung Marr 2019-01-01 05:00:00 2019-01-01     5    83 Jan   Tue  
##  7 Birrarung Marr 2019-01-01 06:00:00 2019-01-01     6    46 Jan   Tue  
##  8 Birrarung Marr 2019-01-01 07:00:00 2019-01-01     7    48 Jan   Tue  
##  9 Birrarung Marr 2019-01-01 08:00:00 2019-01-01     8    49 Jan   Tue  
## 10 Birrarung Marr 2019-01-01 09:00:00 2019-01-01     9    65 Jan   Tue  
## #  with 8,750 more rows
…
Is there the same daily pattern as observed at Melbourne Central? If not, how does it differ?

It is hard to tell because of different y-scales. The y-scales need to be the same to make a valid comparison.

Q5. What are the number of pedestrians per day?

Hint: Refer to Workshop slides

walk_day <- walk_tidy %>% 
  group_by(Date) %>%
  summarise(day_count = sum(Count, na.rm = TRUE))
walk_day

## # A tibble: 365 x 2
##    Date       day_count
##  * <date>         <dbl>
##  1 2019-01-01         0
##  2 2019-01-02         0
##  3 2019-01-03         0
##  4 2019-01-04         0
##  5 2019-01-05     16173
##  6 2019-01-06       627
##  7 2019-01-07         0
##  8 2019-01-08         0
##  9 2019-01-09     17173
## 10 2019-01-10     16948
## #  with 355 more rows
…
walk_holiday <- walk_tidy %>%
  mutate(holiday = if_else(condition = Date %in% vic_holidays$date, 
                          true = "yes", 
                          false = "no")) %>%
  mutate(holiday = if_else(condition = wday %in% c("Sat", "Sun"), 
                          true = "yes", 
                          false = holiday)) 
walk_holiday

## # A tibble: 8,760 x 8
##    Sensor         Date_Time           Date        Time Count month wday  holiday
##    <chr>          <dttm>              <date>     <dbl> <dbl> <ord> <ord> <chr>  
##  1 Melbourne Cen 2018-12-31 13:00:00 2019-01-01     0    NA Jan   Tue   yes    
##  2 Melbourne Cen 2018-12-31 14:00:00 2019-01-01     1    NA Jan   Tue   yes    
##  3 Melbourne Cen 2018-12-31 15:00:00 2019-01-01     2    NA Jan   Tue   yes    
##  4 Melbourne Cen 2018-12-31 16:00:00 2019-01-01     3    NA Jan   Tue   yes    
##  5 Melbourne Cen 2018-12-31 17:00:00 2019-01-01     4    NA Jan   Tue   yes    
##  6 Melbourne Cen 2018-12-31 18:00:00 2019-01-01     5    NA Jan   Tue   yes    
##  7 Melbourne Cen 2018-12-31 19:00:00 2019-01-01     6    NA Jan   Tue   yes    
##  8 Melbourne Cen 2018-12-31 20:00:00 2019-01-01     7    NA Jan   Tue   yes    
##  9 Melbourne Cen 2018-12-31 21:00:00 2019-01-01     8    NA Jan   Tue   yes    
## 10 Melbourne Cen 2018-12-31 22:00:00 2019-01-01     9    NA Jan   Tue   yes    
## #  with 8,750 more rows
…
